<?xml version="1.0" encoding="UTF-8" standalone="no"?>
<!DOCTYPE svg PUBLIC "-//W3C//DTD SVG 1.0//EN" "http://www.w3.org/TR/2001/REC-SVG-20010904/DTD/svg10.dtd">
<!-- Generated by Microsoft Visio 11.0, SVG Export, v1.0 TimelineAxis.svg Page-1 -->
<svg xmlns="http://www.w3.org/2000/svg" xmlns:xlink="http://www.w3.org/1999/xlink" xmlns:ev="http://www.w3.org/2001/xml-events"
		xmlns:v="http://schemas.microsoft.com/visio/2003/SVGExtensions/" width="8.26772in" height="11.6929in"
		viewBox="0 0 595.276 841.89" xml:space="preserve" color-interpolation-filters="sRGB" class="st13">
	<v:documentProperties v:langID="1033" v:metric="true" v:viewMarkup="false">
		<v:userDefs>
			<v:ud v:nameU="msvSubprocessMaster" v:prompt="" v:val="VT4(Box)"/>
			<v:ud v:nameU="msvNoAutoConnect" v:val="VT0(1):26"/>
		</v:userDefs>
	</v:documentProperties>

	<style type="text/css">
	<![CDATA[
		.st1 {stroke:#164326;stroke-linecap:round;stroke-linejoin:round;stroke-width:1}
		.st2 {fill:none;stroke:none;stroke-linecap:round;stroke-linejoin:round;stroke-width:1}
		.st3 {fill:#164326;font-family:Arial;font-size:0.499992em}
		.st4 {stroke:#00b050;stroke-dasharray:7,5;stroke-linecap:round;stroke-linejoin:round;stroke-width:1}
		.st5 {fill:#c00000;font-family:Arial;font-size:0.499992em}
		.st6 {marker-end:url(#mrkr5-168);stroke:#548bd4;stroke-linecap:round;stroke-linejoin:round;stroke-width:1}
		.st7 {fill:#548bd4;fill-opacity:1;stroke:#548bd4;stroke-opacity:1;stroke-width:0.28409090909091}
		.st8 {marker-end:url(#mrkr5-209);stroke:#548bd4;stroke-linecap:round;stroke-linejoin:round;stroke-width:1}
		.st9 {fill:none;stroke:none;stroke-linecap:round;stroke-linejoin:round;stroke-width:0.75}
		.st10 {fill:#7f7f7f;font-family:Arial;font-size:1.99999em}
		.st11 {marker-end:url(#mrkr5-259);stroke:#a5a5a5;stroke-linecap:round;stroke-linejoin:round;stroke-width:1}
		.st12 {fill:#a5a5a5;fill-opacity:1;stroke:#a5a5a5;stroke-opacity:1;stroke-width:0.28409090909091}
		.st13 {fill:none;fill-rule:evenodd;font-size:12;overflow:visible;stroke-linecap:square;stroke-miterlimit:3}
	]]>
	</style>

	<defs id="Markers">
		<g id="lend5">
			<path d="M 2 1 L 0 0 L 1.98117 -0.993387 C 1.67173 -0.364514 1.67301 0.372642 1.98465 1.00043 " style="stroke:none"/>
		</g>
		<marker id="mrkr5-168" class="st7" v:arrowType="5" v:arrowSize="2" v:setback="5.8" refX="-5.8" orient="auto"
				markerUnits="strokeWidth">
			<use xlink:href="#lend5" transform="scale(-3.52,-3.52) "/>
		</marker>
		<marker id="mrkr5-209" class="st7" v:arrowType="5" v:arrowSize="2" v:setback="6.16" refX="-6.16" orient="auto"
				markerUnits="strokeWidth">
			<use xlink:href="#lend5" transform="scale(-3.52,-3.52) "/>
		</marker>
		<marker id="mrkr5-259" class="st12" v:arrowType="5" v:arrowSize="2" v:setback="6.16" refX="-6.16" orient="auto"
				markerUnits="strokeWidth">
			<use xlink:href="#lend5" transform="scale(-3.52,-3.52) "/>
		</marker>
	</defs>
	<g v:mID="0" v:index="1" v:groupContext="foregroundPage">
		<title>Page-1</title>
		<v:pageProperties v:drawingScale="0.0393701" v:pageScale="0.0393701" v:drawingUnits="24" v:shadowOffsetX="8.50394"
				v:shadowOffsetY="-8.50394"/>
		<g id="shape1-1" v:mID="1" v:groupContext="shape" transform="translate(577.276,1033.72) rotate(180)">
			<title>Sheet.1</title>
			<path d="M0 841.89 L90.29 841.89" class="st1"/>
		</g>
		<g id="shape2-4" v:mID="2" v:groupContext="shape" transform="translate(577.276,1124.02) rotate(180)">
			<title>Sheet.2</title>
			<path d="M0 841.89 L90.29 841.89" class="st1"/>
		</g>
		<g id="shape3-7" v:mID="3" v:groupContext="shape" transform="translate(577.276,1214.31) rotate(180)">
			<title>Sheet.3</title>
			<path d="M0 841.89 L90.29 841.89" class="st1"/>
		</g>
		<g id="shape4-10" v:mID="4" v:groupContext="shape" transform="translate(577.276,1304.61) rotate(180)">
			<title>Sheet.4</title>
			<path d="M0 841.89 L90.29 841.89" class="st1"/>
		</g>
		<g id="shape5-13" v:mID="5" v:groupContext="shape" transform="translate(577.276,1394.9) rotate(180)">
			<title>Sheet.5</title>
			<path d="M0 841.89 L90.29 841.89" class="st1"/>
		</g>
		<g id="shape6-16" v:mID="6" v:groupContext="shape" transform="translate(577.276,1485.19) rotate(180)">
			<title>Sheet.6</title>
			<path d="M0 841.89 L90.29 841.89" class="st1"/>
		</g>
		<g id="shape7-19" v:mID="7" v:groupContext="shape" transform="translate(577.276,1575.49) rotate(180)">
			<title>Sheet.7</title>
			<path d="M0 841.89 L90.29 841.89" class="st1"/>
		</g>
		<g id="shape8-22" v:mID="8" v:groupContext="shape" transform="translate(577.276,1665.78) rotate(180)">
			<title>Sheet.8</title>
			<path d="M0 841.89 L90.29 841.89" class="st1"/>
		</g>
		<g id="shape9-25" v:mID="9" v:groupContext="shape" transform="translate(1328.87,191.835) rotate(90)">
			<title>Sheet.9</title>
			<desc>10</desc>
			<v:textBlock v:margins="rect(4,4,4,4)" v:tabSpace="42.5197"/>
			<v:textRect cx="22.5734" cy="826.841" width="45.15" height="30.0979"/>
			<rect x="0" y="811.792" width="45.1468" height="30.0979" class="st2"/>
			<text x="4" y="828.64" class="st3" v:langID="2055"><v:paragraph/><v:tabList/>10</text>		</g>
		<g id="shape10-28" v:mID="10" v:groupContext="shape" transform="translate(1328.87,282.128) rotate(90)">
			<title>Sheet.10</title>
			<desc>20</desc>
			<v:textBlock v:margins="rect(4,4,4,4)" v:tabSpace="42.5197"/>
			<v:textRect cx="22.5734" cy="826.841" width="45.15" height="30.0979"/>
			<rect x="0" y="811.792" width="45.1468" height="30.0979" class="st2"/>
			<text x="4" y="828.64" class="st3" v:langID="2055"><v:paragraph/><v:tabList/>20</text>		</g>
		<g id="shape11-31" v:mID="11" v:groupContext="shape" transform="translate(1328.87,372.422) rotate(90)">
			<title>Sheet.11</title>
			<desc>30</desc>
			<v:textBlock v:margins="rect(4,4,4,4)" v:tabSpace="42.5197"/>
			<v:textRect cx="22.5734" cy="826.841" width="45.15" height="30.0979"/>
			<rect x="0" y="811.792" width="45.1468" height="30.0979" class="st2"/>
			<text x="4" y="828.64" class="st3" v:langID="2055"><v:paragraph/><v:tabList/>30</text>		</g>
		<g id="shape12-34" v:mID="12" v:groupContext="shape" transform="translate(1328.87,462.715) rotate(90)">
			<title>Sheet.12</title>
			<desc>40</desc>
			<v:textBlock v:margins="rect(4,4,4,4)" v:tabSpace="42.5197"/>
			<v:textRect cx="22.5734" cy="826.841" width="45.15" height="30.0979"/>
			<rect x="0" y="811.792" width="45.1468" height="30.0979" class="st2"/>
			<text x="4" y="828.64" class="st3" v:langID="2055"><v:paragraph/><v:tabList/>40</text>		</g>
		<g id="shape13-37" v:mID="13" v:groupContext="shape" transform="translate(1328.87,553.009) rotate(90)">
			<title>Sheet.13</title>
			<desc>50</desc>
			<v:textBlock v:margins="rect(4,4,4,4)" v:tabSpace="42.5197"/>
			<v:textRect cx="22.5734" cy="826.841" width="45.15" height="30.0979"/>
			<rect x="0" y="811.792" width="45.1468" height="30.0979" class="st2"/>
			<text x="4" y="828.64" class="st3" v:langID="2055"><v:paragraph/><v:tabList/>50</text>		</g>
		<g id="shape14-40" v:mID="14" v:groupContext="shape" transform="translate(1328.87,643.303) rotate(90)">
			<title>Sheet.14</title>
			<desc>60</desc>
			<v:textBlock v:margins="rect(4,4,4,4)" v:tabSpace="42.5197"/>
			<v:textRect cx="22.5734" cy="826.841" width="45.15" height="30.0979"/>
			<rect x="0" y="811.792" width="45.1468" height="30.0979" class="st2"/>
			<text x="4" y="828.64" class="st3" v:langID="2055"><v:paragraph/><v:tabList/>60</text>		</g>
		<g id="shape15-43" v:mID="15" v:groupContext="shape" transform="translate(1328.87,733.596) rotate(90)">
			<title>Sheet.15</title>
			<desc>70</desc>
			<v:textBlock v:margins="rect(4,4,4,4)" v:tabSpace="42.5197"/>
			<v:textRect cx="22.5734" cy="826.841" width="45.15" height="30.0979"/>
			<rect x="0" y="811.792" width="45.1468" height="30.0979" class="st2"/>
			<text x="4" y="828.64" class="st3" v:langID="2055"><v:paragraph/><v:tabList/>70</text>		</g>
		<g id="shape16-46" v:mID="16" v:groupContext="shape" transform="translate(411.737,973.529) rotate(180)">
			<title>Sheet.16</title>
			<path d="M0 841.89 L90.29 841.89" class="st1"/>
		</g>
		<g id="shape17-49" v:mID="17" v:groupContext="shape" transform="translate(411.737,1063.82) rotate(180)">
			<title>Sheet.17</title>
			<path d="M0 841.89 L90.29 841.89" class="st1"/>
		</g>
		<g id="shape18-52" v:mID="18" v:groupContext="shape" transform="translate(411.737,1154.12) rotate(180)">
			<title>Sheet.18</title>
			<path d="M0 841.89 L90.29 841.89" class="st1"/>
		</g>
		<g id="shape19-55" v:mID="19" v:groupContext="shape" transform="translate(411.737,1244.41) rotate(180)">
			<title>Sheet.19</title>
			<path d="M0 841.89 L90.29 841.89" class="st1"/>
		</g>
		<g id="shape20-58" v:mID="20" v:groupContext="shape" transform="translate(411.737,1334.7) rotate(180)">
			<title>Sheet.20</title>
			<path d="M0 841.89 L90.29 841.89" class="st1"/>
		</g>
		<g id="shape21-61" v:mID="21" v:groupContext="shape" transform="translate(411.737,1425) rotate(180)">
			<title>Sheet.21</title>
			<path d="M0 841.89 L90.29 841.89" class="st1"/>
		</g>
		<g id="shape22-64" v:mID="22" v:groupContext="shape" transform="translate(411.737,1515.29) rotate(180)">
			<title>Sheet.22</title>
			<path d="M0 841.89 L90.29 841.89" class="st1"/>
		</g>
		<g id="shape23-67" v:mID="23" v:groupContext="shape" transform="translate(411.737,1605.58) rotate(180)">
			<title>Sheet.23</title>
			<path d="M0 841.89 L90.29 841.89" class="st1"/>
		</g>
		<g id="shape24-70" v:mID="24" v:groupContext="shape" transform="translate(1163.33,131.639) rotate(90)">
			<title>Sheet.24</title>
			<desc>10</desc>
			<v:textBlock v:margins="rect(4,4,4,4)" v:tabSpace="42.5197"/>
			<v:textRect cx="22.5734" cy="826.841" width="45.15" height="30.0979"/>
			<rect x="0" y="811.792" width="45.1468" height="30.0979" class="st2"/>
			<text x="4" y="828.64" class="st3" v:langID="2055"><v:paragraph/><v:tabList/>10</text>		</g>
		<g id="shape25-73" v:mID="25" v:groupContext="shape" transform="translate(1163.33,221.933) rotate(90)">
			<title>Sheet.25</title>
			<desc>20</desc>
			<v:textBlock v:margins="rect(4,4,4,4)" v:tabSpace="42.5197"/>
			<v:textRect cx="22.5734" cy="826.841" width="45.15" height="30.0979"/>
			<rect x="0" y="811.792" width="45.1468" height="30.0979" class="st2"/>
			<text x="4" y="828.64" class="st3" v:langID="2055"><v:paragraph/><v:tabList/>20</text>		</g>
		<g id="shape26-76" v:mID="26" v:groupContext="shape" transform="translate(1163.33,312.226) rotate(90)">
			<title>Sheet.26</title>
			<desc>30</desc>
			<v:textBlock v:margins="rect(4,4,4,4)" v:tabSpace="42.5197"/>
			<v:textRect cx="22.5734" cy="826.841" width="45.15" height="30.0979"/>
			<rect x="0" y="811.792" width="45.1468" height="30.0979" class="st2"/>
			<text x="4" y="828.64" class="st3" v:langID="2055"><v:paragraph/><v:tabList/>30</text>		</g>
		<g id="shape27-79" v:mID="27" v:groupContext="shape" transform="translate(1163.33,402.52) rotate(90)">
			<title>Sheet.27</title>
			<desc>40</desc>
			<v:textBlock v:margins="rect(4,4,4,4)" v:tabSpace="42.5197"/>
			<v:textRect cx="22.5734" cy="826.841" width="45.15" height="30.0979"/>
			<rect x="0" y="811.792" width="45.1468" height="30.0979" class="st2"/>
			<text x="4" y="828.64" class="st3" v:langID="2055"><v:paragraph/><v:tabList/>40</text>		</g>
		<g id="shape28-82" v:mID="28" v:groupContext="shape" transform="translate(1163.33,492.813) rotate(90)">
			<title>Sheet.28</title>
			<desc>50</desc>
			<v:textBlock v:margins="rect(4,4,4,4)" v:tabSpace="42.5197"/>
			<v:textRect cx="22.5734" cy="826.841" width="45.15" height="30.0979"/>
			<rect x="0" y="811.792" width="45.1468" height="30.0979" class="st2"/>
			<text x="4" y="828.64" class="st3" v:langID="2055"><v:paragraph/><v:tabList/>50</text>		</g>
		<g id="shape29-85" v:mID="29" v:groupContext="shape" transform="translate(1163.33,583.107) rotate(90)">
			<title>Sheet.29</title>
			<desc>60</desc>
			<v:textBlock v:margins="rect(4,4,4,4)" v:tabSpace="42.5197"/>
			<v:textRect cx="22.5734" cy="826.841" width="45.15" height="30.0979"/>
			<rect x="0" y="811.792" width="45.1468" height="30.0979" class="st2"/>
			<text x="4" y="828.64" class="st3" v:langID="2055"><v:paragraph/><v:tabList/>60</text>		</g>
		<g id="shape30-88" v:mID="30" v:groupContext="shape" transform="translate(1163.33,673.4) rotate(90)">
			<title>Sheet.30</title>
			<desc>70</desc>
			<v:textBlock v:margins="rect(4,4,4,4)" v:tabSpace="42.5197"/>
			<v:textRect cx="22.5734" cy="826.841" width="45.15" height="30.0979"/>
			<rect x="0" y="811.792" width="45.1468" height="30.0979" class="st2"/>
			<text x="4" y="828.64" class="st3" v:langID="2055"><v:paragraph/><v:tabList/>70</text>		</g>
		<g id="shape31-91" v:mID="31" v:groupContext="shape" transform="translate(411.737,1033.72) rotate(180)">
			<title>Sheet.31</title>
			<path d="M0 841.89 L90.29 841.89" class="st4"/>
		</g>
		<g id="shape32-94" v:mID="32" v:groupContext="shape" transform="translate(411.737,1124.02) rotate(180)">
			<title>Sheet.32</title>
			<path d="M0 841.89 L90.29 841.89" class="st4"/>
		</g>
		<g id="shape33-97" v:mID="33" v:groupContext="shape" transform="translate(411.737,1214.31) rotate(180)">
			<title>Sheet.33</title>
			<path d="M0 841.89 L90.29 841.89" class="st4"/>
		</g>
		<g id="shape34-100" v:mID="34" v:groupContext="shape" transform="translate(411.737,1304.61) rotate(180)">
			<title>Sheet.34</title>
			<path d="M0 841.89 L90.29 841.89" class="st4"/>
		</g>
		<g id="shape35-103" v:mID="35" v:groupContext="shape" transform="translate(411.737,1394.9) rotate(180)">
			<title>Sheet.35</title>
			<path d="M0 841.89 L90.29 841.89" class="st4"/>
		</g>
		<g id="shape36-106" v:mID="36" v:groupContext="shape" transform="translate(411.737,1485.19) rotate(180)">
			<title>Sheet.36</title>
			<path d="M0 841.89 L90.29 841.89" class="st4"/>
		</g>
		<g id="shape37-109" v:mID="37" v:groupContext="shape" transform="translate(411.737,1575.49) rotate(180)">
			<title>Sheet.37</title>
			<path d="M0 841.89 L90.29 841.89" class="st4"/>
		</g>
		<g id="shape38-112" v:mID="38" v:groupContext="shape" transform="translate(411.737,1665.78) rotate(180)">
			<title>Sheet.38</title>
			<path d="M0 841.89 L90.29 841.89" class="st4"/>
		</g>
		<g id="shape39-115" v:mID="39" v:groupContext="shape" transform="translate(246.199,1665.78) rotate(180)">
			<title>Sheet.39</title>
			<path d="M0 841.89 L90.29 841.89" class="st1"/>
		</g>
		<g id="shape40-118" v:mID="40" v:groupContext="shape" transform="translate(246.199,1033.72) rotate(180)">
			<title>Sheet.40</title>
			<path d="M0 841.89 L90.29 841.89" class="st1"/>
		</g>
		<g id="shape41-121" v:mID="41" v:groupContext="shape" transform="translate(246.199,1124.02) rotate(180)">
			<title>Sheet.41</title>
			<path d="M0 841.89 L90.29 841.89" class="st1"/>
		</g>
		<g id="shape42-124" v:mID="42" v:groupContext="shape" transform="translate(246.199,1214.31) rotate(180)">
			<title>Sheet.42</title>
			<path d="M0 841.89 L90.29 841.89" class="st1"/>
		</g>
		<g id="shape43-127" v:mID="43" v:groupContext="shape" transform="translate(246.199,1304.61) rotate(180)">
			<title>Sheet.43</title>
			<path d="M0 841.89 L90.29 841.89" class="st1"/>
		</g>
		<g id="shape44-130" v:mID="44" v:groupContext="shape" transform="translate(246.199,1394.9) rotate(180)">
			<title>Sheet.44</title>
			<path d="M0 841.89 L90.29 841.89" class="st1"/>
		</g>
		<g id="shape45-133" v:mID="45" v:groupContext="shape" transform="translate(246.199,1485.19) rotate(180)">
			<title>Sheet.45</title>
			<path d="M0 841.89 L90.29 841.89" class="st1"/>
		</g>
		<g id="shape46-136" v:mID="46" v:groupContext="shape" transform="translate(246.199,1575.49) rotate(180)">
			<title>Sheet.46</title>
			<path d="M0 841.89 L90.29 841.89" class="st1"/>
		</g>
		<g id="shape47-139" v:mID="47" v:groupContext="shape" transform="translate(997.795,733.596) rotate(90)">
			<title>Sheet.47</title>
			<desc>80</desc>
			<v:textBlock v:margins="rect(4,4,4,4)" v:tabSpace="42.5197"/>
			<v:textRect cx="22.5734" cy="826.841" width="45.15" height="30.0979"/>
			<rect x="0" y="811.792" width="45.1468" height="30.0979" class="st2"/>
			<text x="4" y="828.64" class="st5" v:langID="2055"><v:paragraph/><v:tabList/>80</text>		</g>
		<g id="shape48-142" v:mID="48" v:groupContext="shape" transform="translate(997.795,191.835) rotate(90)">
			<title>Sheet.48</title>
			<desc>20</desc>
			<v:textBlock v:margins="rect(4,4,4,4)" v:tabSpace="42.5197"/>
			<v:textRect cx="22.5734" cy="826.841" width="45.15" height="30.0979"/>
			<rect x="0" y="811.792" width="45.1468" height="30.0979" class="st2"/>
			<text x="4" y="828.64" class="st5" v:langID="2055"><v:paragraph/><v:tabList/>20</text>		</g>
		<g id="shape49-145" v:mID="49" v:groupContext="shape" transform="translate(997.795,282.128) rotate(90)">
			<title>Sheet.49</title>
			<desc>30</desc>
			<v:textBlock v:margins="rect(4,4,4,4)" v:tabSpace="42.5197"/>
			<v:textRect cx="22.5734" cy="826.841" width="45.15" height="30.0979"/>
			<rect x="0" y="811.792" width="45.1468" height="30.0979" class="st2"/>
			<text x="4" y="828.64" class="st5" v:langID="2055"><v:paragraph/><v:tabList/>30</text>		</g>
		<g id="shape50-148" v:mID="50" v:groupContext="shape" transform="translate(997.795,372.422) rotate(90)">
			<title>Sheet.50</title>
			<desc>40</desc>
			<v:textBlock v:margins="rect(4,4,4,4)" v:tabSpace="42.5197"/>
			<v:textRect cx="22.5734" cy="826.841" width="45.15" height="30.0979"/>
			<rect x="0" y="811.792" width="45.1468" height="30.0979" class="st2"/>
			<text x="4" y="828.64" class="st5" v:langID="2055"><v:paragraph/><v:tabList/>40</text>		</g>
		<g id="shape51-151" v:mID="51" v:groupContext="shape" transform="translate(997.795,462.715) rotate(90)">
			<title>Sheet.51</title>
			<desc>50</desc>
			<v:textBlock v:margins="rect(4,4,4,4)" v:tabSpace="42.5197"/>
			<v:textRect cx="22.5734" cy="826.841" width="45.15" height="30.0979"/>
			<rect x="0" y="811.792" width="45.1468" height="30.0979" class="st2"/>
			<text x="4" y="828.64" class="st5" v:langID="2055"><v:paragraph/><v:tabList/>50</text>		</g>
		<g id="shape52-154" v:mID="52" v:groupContext="shape" transform="translate(997.795,553.009) rotate(90)">
			<title>Sheet.52</title>
			<desc>60</desc>
			<v:textBlock v:margins="rect(4,4,4,4)" v:tabSpace="42.5197"/>
			<v:textRect cx="22.5734" cy="826.841" width="45.15" height="30.0979"/>
			<rect x="0" y="811.792" width="45.1468" height="30.0979" class="st2"/>
			<text x="4" y="828.64" class="st5" v:langID="2055"><v:paragraph/><v:tabList/>60</text>		</g>
		<g id="shape53-157" v:mID="53" v:groupContext="shape" transform="translate(997.795,643.303) rotate(90)">
			<title>Sheet.53</title>
			<desc>70</desc>
			<v:textBlock v:margins="rect(4,4,4,4)" v:tabSpace="42.5197"/>
			<v:textRect cx="22.5734" cy="826.841" width="45.15" height="30.0979"/>
			<rect x="0" y="811.792" width="45.1468" height="30.0979" class="st2"/>
			<text x="4" y="828.64" class="st5" v:langID="2055"><v:paragraph/><v:tabList/>70</text>		</g>
		<g id="shape54-160" v:mID="54" v:groupContext="shape" transform="translate(246.199,943.431) rotate(180)">
			<title>Sheet.54</title>
			<path d="M0 841.89 L90.29 841.89" class="st4"/>
		</g>
		<g id="shape55-163" v:mID="55" v:groupContext="shape" transform="translate(1092.6,106.056) rotate(90)">
			<title>Sheet.55</title>
			<path d="M0 841.89 A40.6321 15.0489 0 0 1 40.63 826.84 A40.6321 15.0489 0 0 1 78.47 836.4 L78.63 836.72" class="st6"/>
		</g>
		<g id="shape56-169" v:mID="56" v:groupContext="shape" transform="translate(1092.6,196.349) rotate(90)">
			<title>Sheet.56</title>
			<path d="M0 841.89 A40.6321 15.0489 0 0 1 40.63 826.84 A40.6321 15.0489 0 0 1 78.47 836.4 L78.63 836.72" class="st6"/>
		</g>
		<g id="shape57-174" v:mID="57" v:groupContext="shape" transform="translate(1092.6,286.643) rotate(90)">
			<title>Sheet.57</title>
			<path d="M0 841.89 A40.6321 15.0489 0 0 1 40.63 826.84 A40.6321 15.0489 0 0 1 78.47 836.4 L78.63 836.72" class="st6"/>
		</g>
		<g id="shape58-179" v:mID="58" v:groupContext="shape" transform="translate(1092.6,376.937) rotate(90)">
			<title>Sheet.58</title>
			<path d="M0 841.89 A40.6321 15.0489 0 0 1 40.63 826.84 A40.6321 15.0489 0 0 1 78.47 836.4 L78.63 836.72" class="st6"/>
		</g>
		<g id="shape59-184" v:mID="59" v:groupContext="shape" transform="translate(1092.6,467.23) rotate(90)">
			<title>Sheet.59</title>
			<path d="M0 841.89 A40.6321 15.0489 0 0 1 40.63 826.84 A40.6321 15.0489 0 0 1 78.47 836.4 L78.63 836.72" class="st6"/>
		</g>
		<g id="shape60-189" v:mID="60" v:groupContext="shape" transform="translate(1092.6,557.524) rotate(90)">
			<title>Sheet.60</title>
			<path d="M0 841.89 A40.6321 15.0489 0 0 1 40.63 826.84 A40.6321 15.0489 0 0 1 78.47 836.4 L78.63 836.72" class="st6"/>
		</g>
		<g id="shape61-194" v:mID="61" v:groupContext="shape" transform="translate(1092.6,647.817) rotate(90)">
			<title>Sheet.61</title>
			<path d="M0 841.89 A40.6321 15.0489 0 0 1 40.63 826.84 A40.6321 15.0489 0 0 1 78.47 836.4 L78.63 836.72" class="st6"/>
		</g>
		<g id="shape62-199" v:mID="62" v:groupContext="shape" transform="translate(1092.6,738.111) rotate(90)">
			<title>Sheet.62</title>
			<path d="M0 841.89 A40.6321 15.0489 0 0 1 40.63 826.84 A40.6321 15.0489 0 0 1 78.47 836.4 L78.63 836.72" class="st6"/>
		</g>
		<g id="shape63-204" v:mID="63" v:groupContext="shape" transform="translate(-475.299,185.815) rotate(-90)">
			<title>Sheet.63</title>
			<path d="M0 841.89 L42 841.89" class="st8"/>
		</g>
		<g id="shape64-210" v:mID="64" v:groupContext="shape" transform="translate(-475.299,276.109) rotate(-90)">
			<title>Sheet.64</title>
			<path d="M0 841.89 L42 841.89" class="st8"/>
		</g>
		<g id="shape65-215" v:mID="65" v:groupContext="shape" transform="translate(-475.299,366.402) rotate(-90)">
			<title>Sheet.65</title>
			<path d="M0 841.89 L42 841.89" class="st8"/>
		</g>
		<g id="shape66-220" v:mID="66" v:groupContext="shape" transform="translate(-475.299,456.696) rotate(-90)">
			<title>Sheet.66</title>
			<path d="M0 841.89 L42 841.89" class="st8"/>
		</g>
		<g id="shape67-225" v:mID="67" v:groupContext="shape" transform="translate(-475.299,543.98) rotate(-90)">
			<title>Sheet.67</title>
			<path d="M0 841.89 L42 841.89" class="st8"/>
		</g>
		<g id="shape68-230" v:mID="68" v:groupContext="shape" transform="translate(-475.299,637.283) rotate(-90)">
			<title>Sheet.68</title>
			<path d="M0 841.89 L42 841.89" class="st8"/>
		</g>
		<g id="shape69-235" v:mID="69" v:groupContext="shape" transform="translate(-475.299,727.577) rotate(-90)">
			<title>Sheet.69</title>
			<path d="M0 841.89 L42 841.89" class="st8"/>
		</g>
		<g id="shape70-240" v:mID="70" v:groupContext="shape" transform="translate(-475.299,817.87) rotate(-90)">
			<title>Sheet.70</title>
			<path d="M0 841.89 L42 841.89" class="st8"/>
		</g>
		<g id="shape71-245" v:mID="71" v:groupContext="shape" transform="translate(1012.84,26.2964) rotate(90)">
			<title>Sheet.71</title>
			<desc>C</desc>
			<v:textBlock v:margins="rect(4,4,4,4)" v:tabSpace="42.5197"/>
			<v:textRect cx="22.5734" cy="811.792" width="45.15" height="60.1957"/>
			<rect x="0" y="781.694" width="45.1468" height="60.1957" class="st9"/>
			<text x="13.91" y="818.99" class="st10" v:langID="2055"><v:paragraph v:horizAlign="1"/><v:tabList/>C</text>		</g>
		<g id="shape72-248" v:mID="72" v:groupContext="shape" transform="translate(1178.38,26.2964) rotate(90)">
			<title>Sheet.72</title>
			<desc>B</desc>
			<v:textBlock v:margins="rect(4,4,4,4)" v:tabSpace="42.5197"/>
			<v:textRect cx="22.5734" cy="811.792" width="45.15" height="60.1957"/>
			<rect x="0" y="781.694" width="45.1468" height="60.1957" class="st9"/>
			<text x="14.57" y="818.99" class="st10" v:langID="2055"><v:paragraph v:horizAlign="1"/><v:tabList/>B</text>		</g>
		<g id="shape73-251" v:mID="73" v:groupContext="shape" transform="translate(1343.92,26.2964) rotate(90)">
			<title>Sheet.73</title>
			<desc>A</desc>
			<v:textBlock v:margins="rect(4,4,4,4)" v:tabSpace="42.5197"/>
			<v:textRect cx="22.5734" cy="811.792" width="45.15" height="60.1957"/>
			<rect x="0" y="781.694" width="45.1468" height="60.1957" class="st9"/>
			<text x="14.57" y="818.99" class="st10" v:langID="2055"><v:paragraph v:horizAlign="1"/><v:tabList/>A</text>		</g>
		<g id="shape74-254" v:mID="74" v:groupContext="shape" transform="translate(-640.837,131.639) rotate(-90)">
			<title>Sheet.74</title>
			<path d="M0 841.89 L17.92 841.89" class="st11"/>
		</g>
		<g id="shape76-260" v:mID="76" v:groupContext="shape" transform="translate(-640.837,221.933) rotate(-90)">
			<title>Sheet.76</title>
			<path d="M0 841.89 L17.92 841.89" class="st11"/>
		</g>
		<g id="shape78-265" v:mID="78" v:groupContext="shape" transform="translate(-640.837,310.721) rotate(-90)">
			<title>Sheet.78</title>
			<path d="M0 841.89 L17.92 841.89" class="st11"/>
		</g>
		<g id="shape80-270" v:mID="80" v:groupContext="shape" transform="translate(-640.837,402.52) rotate(-90)">
			<title>Sheet.80</title>
			<path d="M0 841.89 L17.92 841.89" class="st11"/>
		</g>
		<g id="shape82-275" v:mID="82" v:groupContext="shape" transform="translate(-640.837,492.813) rotate(-90)">
			<title>Sheet.82</title>
			<path d="M0 841.89 L17.92 841.89" class="st11"/>
		</g>
		<g id="shape84-280" v:mID="84" v:groupContext="shape" transform="translate(-640.837,583.107) rotate(-90)">
			<title>Sheet.84</title>
			<path d="M0 841.89 L17.92 841.89" class="st11"/>
		</g>
		<g id="shape86-285" v:mID="86" v:groupContext="shape" transform="translate(-640.837,671.896) rotate(-90)">
			<title>Sheet.86</title>
			<path d="M0 841.89 L17.92 841.89" class="st11"/>
		</g>
		<g id="shape88-290" v:mID="88" v:groupContext="shape" transform="translate(-640.837,763.694) rotate(-90)">
			<title>Sheet.88</title>
			<path d="M0 841.89 L17.92 841.89" class="st11"/>
		</g>
	</g>
</svg>
