%!PS-Adobe-3.0 EPSF-3.0
%%Creator: cairo 1.10.2 (http://cairographics.org)
%%CreationDate: Tue Jun 21 09:45:07 2011
%%Pages: 1
%%BoundingBox: 0 -1 454 454
%%DocumentData: Clean7Bit
%%LanguageLevel: 2
%%EndComments
%%BeginProlog
/cairo_eps_state save def
/dict_count countdictstack def
/op_count count 1 sub def
userdict begin
/q { gsave } bind def
/Q { grestore } bind def
/cm { 6 array astore concat } bind def
/w { setlinewidth } bind def
/J { setlinecap } bind def
/j { setlinejoin } bind def
/M { setmiterlimit } bind def
/d { setdash } bind def
/m { moveto } bind def
/l { lineto } bind def
/c { curveto } bind def
/h { closepath } bind def
/re { exch dup neg 3 1 roll 5 3 roll moveto 0 rlineto
      0 exch rlineto 0 rlineto closepath } bind def
/S { stroke } bind def
/f { fill } bind def
/f* { eofill } bind def
/n { newpath } bind def
/W { clip } bind def
/W* { eoclip } bind def
/BT { } bind def
/ET { } bind def
/pdfmark where { pop globaldict /?pdfmark /exec load put }
    { globaldict begin /?pdfmark /pop load def /pdfmark
    /cleartomark load def end } ifelse
/BDC { mark 3 1 roll /BDC pdfmark } bind def
/EMC { mark /EMC pdfmark } bind def
/cairo_store_point { /cairo_point_y exch def /cairo_point_x exch def } def
/Tj { show currentpoint cairo_store_point } bind def
/TJ {
  {
    dup
    type /stringtype eq
    { show } { -0.001 mul 0 cairo_font_matrix dtransform rmoveto } ifelse
  } forall
  currentpoint cairo_store_point
} bind def
/cairo_selectfont { cairo_font_matrix aload pop pop pop 0 0 6 array astore
    cairo_font exch selectfont cairo_point_x cairo_point_y moveto } bind def
/Tf { pop /cairo_font exch def /cairo_font_matrix where
      { pop cairo_selectfont } if } bind def
/Td { matrix translate cairo_font_matrix matrix concatmatrix dup
      /cairo_font_matrix exch def dup 4 get exch 5 get cairo_store_point
      /cairo_font where { pop cairo_selectfont } if } bind def
/Tm { 2 copy 8 2 roll 6 array astore /cairo_font_matrix exch def
      cairo_store_point /cairo_font where { pop cairo_selectfont } if } bind def
/g { setgray } bind def
/rg { setrgbcolor } bind def
/d1 { setcachedevice } bind def
%%EndProlog
%%Page: 1 1
%%BeginPageSetup
%%PageBoundingBox: 0 -1 454 454
%%EndPageSetup
q 0 -1 454 455 rectclip q
0 453.542 454 -454 re W n
0.898039 0.72549 0.709804 rg
340.16 405.355 m 340.16 445.034 l 367.617 445.034 394.906 433.734 
414.32 414.316 c 433.734 394.902 445.039 367.613 445.039 340.156 c 
405.359 340.156 l 405.359 357.226 398.336 374.191 386.266 386.261 c 
374.195 398.331 357.23 405.359 340.16 405.355 c h
340.16 405.355 m f
113.387 48.187 m 113.387 8.507 l 85.93 8.507 58.641 19.808 39.227 
39.226 c 19.809 58.64 8.508 85.929 8.504 113.386 c 48.184 113.386 l 
48.184 96.316 55.211 79.351 67.281 67.281 c 79.352 55.21 96.316 48.187 
113.387 48.187 c h
113.387 48.187 m f
340.16 48.187 m 340.16 8.507 l 367.617 8.507 394.906 19.808 414.32 
39.226 c 433.734 58.64 445.039 85.929 445.039 113.386 c 405.359 113.386 
l 405.359 96.316 398.336 79.351 386.266 67.281 c 374.195 55.21 357.23 
48.187 340.16 48.187 c h
340.16 48.187 m f
113.387 405.355 m 113.387 445.034 l 85.93 445.034 58.641 433.734 39.227 
414.316 c 19.809 394.902 8.508 367.613 8.504 340.156 c 48.184 340.156 l 
48.184 357.226 55.211 374.191 67.281 386.261 c 79.352 398.331 96.316 
405.359 113.387 405.355 c h
113.387 405.355 m f
0.552941 0.694118 0.886275 rg
396.852 283.464 56.691 -113.387 re f
283.465 453.542 m 283.465 396.851 l 170.082 396.851 l 170.082 453.542 l 
h
283.465 453.542 m f
283.465 56.695 m 283.465 -0.001 l 170.082 -0.001 l 170.082 56.695 l h
283.465 56.695 m f
0 283.464 56.691 -113.387 re f
0 g
1.499998 w
1 J
1 j
[] 0.0 d
3 M q 1 0 0 -1 0 453.542236 cm
155.906 14.172 m 297.637 14.172 l S Q
q 1 0 0 -1 0 453.542236 cm
155.906 28.348 m 297.637 28.348 l S Q
q 1 0 0 -1 0 453.542236 cm
155.906 42.52 m 297.637 42.52 l S Q
1.341638 w
q 1 0.500001 0.500001 -1 0 453.542236 cm
90.708 73.702 m 119.053 73.699 l S Q
1.341639 w
q -1 0.499999 0.499999 1 0 453.542236 cm
-141.733 28.347 m -113.386 28.345 l S Q
1.499998 w
q -1 0 0 1 0 453.542236 cm
-155.906 -28.344 m -113.387 -28.344 l S Q
1.341638 w
q 1 -0.500001 -0.500001 -1 0 453.542236 cm
243.778 -107.717 m 272.122 -107.717 l S Q
q 1 0.500001 0.500001 -1 0 453.542236 cm
221.101 153.07 m 249.448 153.072 l S Q
1.499998 w
q 1 0 0 -1 0 453.542236 cm
297.637 28.348 m 340.156 28.348 l S Q
1.060659 w
q -1 1 1 1 0 453.542236 cm
-269.291 155.908 m -258.16 166.656 -242.516 172.914 -226.773 172.914 c 
-211.031 172.914 -195.387 166.656 -184.254 155.906 c S Q
1.499998 w
q 0 -1 -1 0 0 453.542236 cm
155.906 -439.371 m 297.633 -439.371 l S Q
q 0 -1 -1 0 0 453.542236 cm
155.906 -425.199 m 297.633 -425.199 l S Q
q 0 -1 -1 0 0 453.542236 cm
155.906 -411.02 m 297.633 -411.02 l S Q
1.341638 w
q 0.500001 -1 -1 -0.500001 0 453.542236 cm
272.127 -289.136 m 300.472 -289.139 l S Q
q 0.500001 1 1 -0.500001 0 453.542236 cm
39.685 391.181 m 68.028 391.181 l S Q
1.499998 w
q 0 1 1 0 0 453.542236 cm
-155.906 425.195 m -113.387 425.195 l S Q
1.341639 w
q -0.499999 -1 -1 0.499999 0 453.542236 cm
62.361 -470.552 m 90.705 -470.552 l S Q
1.341638 w
q 0.500001 -1 -1 -0.500001 0 453.542236 cm
402.517 -209.761 m 430.861 -209.76 l S Q
1.499998 w
q 0 -1 -1 0 0 453.542236 cm
297.637 -425.199 m 340.156 -425.199 l S Q
1.060659 w
q 1 1 1 -1 0 453.542236 cm
-42.52 382.68 m -31.389 393.428 -15.744 399.686 -0.002 399.686 c 15.74 
399.686 31.385 393.428 42.518 382.678 c S Q
1.499998 w
q -1 0 0 1 0 453.542236 cm
-297.637 -439.363 m -155.906 -439.363 l S Q
q -1 0 0 1 0 453.542236 cm
-297.637 -425.195 m -155.906 -425.195 l S Q
q -1 0 0 1 0 453.542236 cm
-297.637 -411.023 m -155.906 -411.023 l S Q
1.341639 w
q -1 -0.499999 -0.499999 1 0 453.542236 cm
-90.71 -470.55 m -62.366 -470.55 l S Q
1.341638 w
q 1 -0.500001 -0.500001 -1 0 453.542236 cm
402.519 209.764 m 430.862 209.764 l S Q
1.499998 w
q 1 0 0 -1 0 453.542236 cm
297.637 425.195 m 340.156 425.195 l S Q
1.341639 w
q -1 0.499999 0.499999 1 0 453.542236 cm
-300.47 -289.129 m -272.123 -289.13 l S Q
q -1 -0.499999 -0.499999 1 0 453.542236 cm
39.684 -391.181 m 68.028 -391.181 l S Q
1.499998 w
q -1 0 0 1 0 453.542236 cm
-155.906 -425.195 m -113.387 -425.195 l S Q
1.060659 w
q 1 -1 -1 -1 0 453.542236 cm
184.252 155.908 m 195.383 166.656 211.027 172.914 226.77 172.914 c 
242.512 172.914 258.156 166.656 269.289 155.906 c S Q
1.499998 w
q 0 1 1 0 0 453.542236 cm
-297.637 14.172 m -155.906 14.172 l S Q
q 0 1 1 0 0 453.542236 cm
-297.637 28.348 m -155.906 28.348 l S Q
q 0 1 1 0 0 453.542236 cm
-297.637 42.52 m -155.906 42.52 l S Q
1.341639 w
q -0.499999 1 1 0.499999 0 453.542236 cm
-272.127 -107.715 m -243.783 -107.715 l S Q
q -0.499999 -1 -1 0.499999 0 453.542236 cm
221.102 -153.07 m 249.446 -153.07 l S Q
1.499998 w
q 0 -1 -1 0 0 453.542236 cm
297.637 -28.348 m 340.156 -28.348 l S Q
1.341638 w
q 0.500001 1 1 -0.500001 0 453.542236 cm
-119.056 73.7 m -90.711 73.703 l S Q
1.341639 w
q -0.499999 1 1 0.499999 0 453.542236 cm
-141.733 -28.347 m -113.389 -28.347 l S Q
1.499998 w
q 0 1 1 0 0 453.542236 cm
-155.906 28.348 m -113.387 28.348 l S Q
1.060659 w
q -1 -1 -1 1 0 453.542236 cm
-42.52 -70.863 m -31.389 -60.115 -15.744 -53.857 -0.002 -53.857 c 15.74 
-53.857 31.385 -60.115 42.516 -70.863 c S Q
0.615686 0.733333 0.380392 rg
198.426 446.456 56.691 -14.176 re f
0 g
0.749999 w
q 1 0 0 -1 0 453.542236 cm
198.426 7.086 56.691 14.176 re S Q
0.615686 0.733333 0.380392 rg
198.426 418.109 56.691 -14.172 re f
0 g
q 1 0 0 -1 0 453.542236 cm
198.426 35.434 56.691 14.172 re S Q
0.615686 0.733333 0.380392 rg
31.637 381.816 m 71.727 421.906 l 81.746 411.882 l 41.66 371.792 l h
31.637 381.816 m f
0 g
0.530329 w
q 1 1 1 -1 0 453.542236 cm
-20.045 51.682 m 20.045 51.682 l 20.043 61.703 l -20.045 61.705 l h
-20.045 51.682 m S Q
1 g
2.121317 w
q 1 1 1 -1 0 453.542236 cm
-14.174 56.693 m 14.174 56.693 l S Q
2.121317 w
q -1 -1 -1 1 0 453.542236 cm
-11.035 -59.832 m -14.174 -56.693 l -11.035 -53.555 l S Q
2.999996 w
q 1 0 0 -1 0 453.542236 cm
209.762 14.172 m 243.785 14.172 l S Q
2.999996 w
q -1 0 0 1 0 453.542236 cm
-239.344 -18.613 m -243.785 -14.172 l -239.344 -9.734 l S Q
2.999996 w
q -1 0 0 -1 0 453.542236 cm
-243.777 42.52 m -209.758 42.52 l S Q
2.999996 w
q 1 0 0 1 0 453.542236 cm
214.199 -46.961 m 209.758 -42.52 l 214.199 -38.078 l S Q
0.615686 0.733333 0.380392 rg
418.113 255.116 m 418.113 198.425 l 403.941 198.425 l 403.941 255.116 l 
h
418.113 255.116 m f
0 g
0.749999 w
q 0 -1 -1 0 0 453.542236 cm
198.426 -418.113 m 255.117 -418.113 l 255.117 -403.941 l 198.426 
-403.941 l h
198.426 -418.113 m S Q
1 g
2.999996 w
q 0 1 -1 0 0 453.542236 cm
-243.777 -411.02 m -209.758 -411.02 l S Q
2.999996 w
q 0 -1 1 0 0 453.542236 cm
214.199 406.578 m 209.758 411.02 l 214.199 415.461 l S Q
Q Q
showpage
%%Trailer
count op_count sub {pop} repeat
countdictstack dict_count sub {end} repeat
cairo_eps_state restore
%%EOF
